{
  "project_info": {
    "project_number": "606389292043",
    "firebase_url": "https://scanfitapp-68e36.firebaseio.com",
    "project_id": "scanfitapp-68e36",
    "storage_bucket": "scanfitapp-68e36.appspot.com"
  },
  "client": [
    {
      "client_info": {
        "mobilesdk_app_id": "1:606389292043:android:d8e62a559e6665a5648b0e",
        "android_client_info": {
          "package_name": "com.starwort"
        }
      },
      "oauth_client": [
        {
          "client_id": "606389292043-m8s0lqp44729h6qgtmrf90fous8ffj5l.apps.googleusercontent.com",
          "client_type": 3
        }
      ],
      "api_key": [
        {
          "current_key": "AIzaSyCsTcVG2qHU5l3OrM5m_xbscvH4GZUDomw"
        }
      ],
      "services": {
        "appinvite_service": {
          "other_platform_oauth_client": [
            {
              "client_id": "606389292043-m8s0lqp44729h6qgtmrf90fous8ffj5l.apps.googleusercontent.com",
              "client_type": 3
            },
            {
              "client_id": "606389292043-j94ridmdmm73mo52420kr5hptt11659o.apps.googleusercontent.com",
              "client_type": 2,
              "ios_info": {
                "bundle_id": "com.hl.starwort"
              }
            }
          ]
        }
      }
    }
  ],
  "configuration_version": "1"
}